<?xml version="1.0" encoding="UTF-8"?>
<svg xmlns="http://www.w3.org/2000/svg" xmlns:xlink="http://www.w3.org/1999/xlink" width="606" height="409" viewBox="0 0 606 409">
<defs>
<g>
<g id="glyph-0-0">
</g>
<g id="glyph-0-1">
<path d="M 2.421875 -6.359375 C 1.84375 -6.359375 1.3125 -6.09375 0.984375 -5.671875 C 0.578125 -5.109375 0.375 -4.25 0.375 -3.078125 C 0.375 -0.9375 1.078125 0.203125 2.421875 0.203125 C 3.734375 0.203125 4.453125 -0.9375 4.453125 -3.03125 C 4.453125 -4.25 4.265625 -5.078125 3.859375 -5.671875 C 3.53125 -6.109375 3.015625 -6.359375 2.421875 -6.359375 Z M 2.421875 -5.671875 C 3.25 -5.671875 3.671875 -4.828125 3.671875 -3.09375 C 3.671875 -1.28125 3.265625 -0.4375 2.40625 -0.4375 C 1.578125 -0.4375 1.171875 -1.3125 1.171875 -3.0625 C 1.171875 -4.828125 1.578125 -5.671875 2.421875 -5.671875 Z M 2.421875 -5.671875 "/>
</g>
<g id="glyph-0-2">
<path d="M 1.6875 -0.921875 L 0.765625 -0.921875 L 0.765625 0 L 1.6875 0 Z M 1.6875 -0.921875 "/>
</g>
<g id="glyph-0-3">
<path d="M 2.28125 -4.53125 L 2.28125 0 L 3.046875 0 L 3.046875 -6.359375 L 2.546875 -6.359375 C 2.265625 -5.390625 2.09375 -5.25 0.890625 -5.09375 L 0.890625 -4.53125 Z M 2.28125 -4.53125 "/>
</g>
<g id="glyph-0-4">
<path d="M 4.453125 -0.765625 L 1.171875 -0.765625 C 1.25 -1.296875 1.53125 -1.625 2.296875 -2.09375 L 3.171875 -2.59375 C 4.046875 -3.0625 4.5 -3.71875 4.5 -4.5 C 4.5 -5.03125 4.28125 -5.53125 3.921875 -5.875 C 3.546875 -6.203125 3.09375 -6.359375 2.5 -6.359375 C 1.703125 -6.359375 1.125 -6.078125 0.78125 -5.53125 C 0.546875 -5.203125 0.453125 -4.796875 0.4375 -4.15625 L 1.21875 -4.15625 C 1.234375 -4.59375 1.296875 -4.84375 1.40625 -5.0625 C 1.59375 -5.4375 2 -5.6875 2.46875 -5.6875 C 3.171875 -5.6875 3.703125 -5.171875 3.703125 -4.484375 C 3.703125 -3.96875 3.40625 -3.53125 2.859375 -3.21875 L 2.046875 -2.75 C 0.75 -2 0.375 -1.40625 0.296875 -0.015625 L 4.453125 -0.015625 Z M 4.453125 -0.765625 "/>
</g>
<g id="glyph-0-5">
<path d="M 1.9375 -2.921875 L 2.359375 -2.921875 C 3.203125 -2.921875 3.65625 -2.53125 3.65625 -1.765625 C 3.65625 -0.96875 3.171875 -0.484375 2.375 -0.484375 C 1.515625 -0.484375 1.109375 -0.921875 1.0625 -1.84375 L 0.28125 -1.84375 C 0.3125 -1.34375 0.40625 -1 0.546875 -0.71875 C 0.875 -0.109375 1.484375 0.203125 2.34375 0.203125 C 3.625 0.203125 4.453125 -0.578125 4.453125 -1.78125 C 4.453125 -2.59375 4.140625 -3.03125 3.390625 -3.296875 C 3.96875 -3.53125 4.265625 -3.96875 4.265625 -4.609375 C 4.265625 -5.703125 3.546875 -6.359375 2.359375 -6.359375 C 1.109375 -6.359375 0.4375 -5.65625 0.40625 -4.3125 L 1.1875 -4.3125 C 1.203125 -4.703125 1.234375 -4.921875 1.328125 -5.109375 C 1.5 -5.46875 1.890625 -5.6875 2.375 -5.6875 C 3.0625 -5.6875 3.46875 -5.265625 3.46875 -4.578125 C 3.46875 -4.140625 3.3125 -3.859375 2.96875 -3.71875 C 2.765625 -3.625 2.484375 -3.59375 1.9375 -3.578125 Z M 1.9375 -2.921875 "/>
</g>
<g id="glyph-0-6">
<path d="M 4.1875 -6.234375 L 0.96875 -6.234375 L 0.5 -2.84375 L 1.21875 -2.84375 C 1.578125 -3.265625 1.875 -3.421875 2.359375 -3.421875 C 3.203125 -3.421875 3.71875 -2.84375 3.71875 -1.921875 C 3.71875 -1.03125 3.203125 -0.484375 2.359375 -0.484375 C 1.6875 -0.484375 1.265625 -0.828125 1.078125 -1.53125 L 0.3125 -1.53125 C 0.40625 -1.015625 0.5 -0.78125 0.6875 -0.546875 C 1.03125 -0.078125 1.671875 0.203125 2.375 0.203125 C 3.640625 0.203125 4.515625 -0.71875 4.515625 -2.03125 C 4.515625 -3.265625 3.6875 -4.109375 2.5 -4.109375 C 2.0625 -4.109375 1.703125 -4 1.34375 -3.734375 L 1.59375 -5.46875 L 4.1875 -5.46875 Z M 4.1875 -6.234375 "/>
</g>
<g id="glyph-1-0">
</g>
<g id="glyph-1-1">
<path d="M 0.765625 -5.765625 L 0.765625 0 L 1.6875 0 L 1.6875 -3.625 C 1.6875 -4.453125 2.296875 -5.125 3.046875 -5.125 C 3.734375 -5.125 4.109375 -4.703125 4.109375 -3.96875 L 4.109375 0 L 5.03125 0 L 5.03125 -3.625 C 5.03125 -4.453125 5.640625 -5.125 6.390625 -5.125 C 7.0625 -5.125 7.453125 -4.703125 7.453125 -3.96875 L 7.453125 0 L 8.375 0 L 8.375 -4.328125 C 8.375 -5.359375 7.78125 -5.921875 6.703125 -5.921875 C 5.9375 -5.921875 5.484375 -5.703125 4.9375 -5.046875 C 4.59375 -5.671875 4.140625 -5.921875 3.390625 -5.921875 C 2.625 -5.921875 2.09375 -5.640625 1.609375 -4.953125 L 1.609375 -5.765625 Z M 0.765625 -5.765625 "/>
</g>
<g id="glyph-1-2">
<path d="M 5.640625 -2.578125 C 5.640625 -3.453125 5.578125 -3.984375 5.40625 -4.40625 C 5.03125 -5.359375 4.15625 -5.921875 3.078125 -5.921875 C 1.46875 -5.921875 0.4375 -4.703125 0.4375 -2.8125 C 0.4375 -0.90625 1.4375 0.25 3.0625 0.25 C 4.375 0.25 5.296875 -0.5 5.515625 -1.75 L 4.59375 -1.75 C 4.34375 -0.984375 3.828125 -0.59375 3.09375 -0.59375 C 2.515625 -0.59375 2.015625 -0.859375 1.703125 -1.34375 C 1.484375 -1.671875 1.40625 -2 1.390625 -2.578125 Z M 1.421875 -3.328125 C 1.5 -4.390625 2.140625 -5.078125 3.0625 -5.078125 C 4 -5.078125 4.65625 -4.359375 4.65625 -3.328125 Z M 1.421875 -3.328125 "/>
</g>
<g id="glyph-1-3">
<path d="M 5.890625 -0.53125 C 5.78125 -0.515625 5.734375 -0.515625 5.6875 -0.515625 C 5.375 -0.515625 5.1875 -0.6875 5.1875 -0.96875 L 5.1875 -4.359375 C 5.1875 -5.375 4.4375 -5.921875 3.03125 -5.921875 C 2.171875 -5.921875 1.5 -5.6875 1.109375 -5.265625 C 0.84375 -4.96875 0.734375 -4.625 0.71875 -4.0625 L 1.640625 -4.0625 C 1.71875 -4.765625 2.140625 -5.078125 2.984375 -5.078125 C 3.828125 -5.078125 4.28125 -4.78125 4.28125 -4.21875 L 4.28125 -3.984375 C 4.265625 -3.59375 4.0625 -3.4375 3.328125 -3.34375 C 2.03125 -3.171875 1.828125 -3.140625 1.46875 -2.984375 C 0.796875 -2.703125 0.46875 -2.203125 0.46875 -1.453125 C 0.46875 -0.40625 1.1875 0.25 2.359375 0.25 C 3.078125 0.25 3.65625 0 4.3125 -0.59375 C 4.375 0 4.65625 0.25 5.265625 0.25 C 5.453125 0.25 5.578125 0.234375 5.890625 0.15625 Z M 4.28125 -1.8125 C 4.28125 -1.5 4.1875 -1.3125 3.921875 -1.0625 C 3.546875 -0.71875 3.09375 -0.546875 2.546875 -0.546875 C 1.84375 -0.546875 1.421875 -0.890625 1.421875 -1.46875 C 1.421875 -2.078125 1.8125 -2.390625 2.8125 -2.53125 C 3.78125 -2.65625 3.96875 -2.703125 4.28125 -2.84375 Z M 4.28125 -1.8125 "/>
</g>
<g id="glyph-1-4">
<path d="M 0.765625 -5.765625 L 0.765625 0 L 1.6875 0 L 1.6875 -3.171875 C 1.6875 -4.359375 2.3125 -5.125 3.25 -5.125 C 3.984375 -5.125 4.4375 -4.6875 4.4375 -4 L 4.4375 0 L 5.359375 0 L 5.359375 -4.359375 C 5.359375 -5.3125 4.640625 -5.921875 3.53125 -5.921875 C 2.671875 -5.921875 2.125 -5.59375 1.609375 -4.796875 L 1.609375 -5.765625 Z M 0.765625 -5.765625 "/>
</g>
<g id="glyph-1-5">
<path d="M 6.359375 1.390625 L -0.234375 1.390625 L -0.234375 1.9375 L 6.359375 1.9375 Z M 6.359375 1.390625 "/>
</g>
<g id="glyph-1-6">
<path d="M 5.4375 -8.015625 L 4.53125 -8.015625 L 4.53125 -5.03125 C 4.140625 -5.625 3.53125 -5.921875 2.765625 -5.921875 C 1.265625 -5.921875 0.28125 -4.734375 0.28125 -2.890625 C 0.28125 -0.953125 1.234375 0.25 2.796875 0.25 C 3.59375 0.25 4.140625 -0.046875 4.625 -0.765625 L 4.625 0 L 5.4375 0 Z M 2.921875 -5.078125 C 3.90625 -5.078125 4.53125 -4.203125 4.53125 -2.8125 C 4.53125 -1.484375 3.890625 -0.609375 2.921875 -0.609375 C 1.90625 -0.609375 1.25 -1.5 1.25 -2.84375 C 1.25 -4.1875 1.90625 -5.078125 2.921875 -5.078125 Z M 2.921875 -5.078125 "/>
</g>
<g id="glyph-1-7">
<path d="M 0.59375 2.390625 L 1.515625 2.390625 L 1.515625 -0.609375 C 2 -0.015625 2.546875 0.25 3.28125 0.25 C 4.78125 0.25 5.75 -0.953125 5.75 -2.78125 C 5.75 -4.71875 4.8125 -5.921875 3.28125 -5.921875 C 2.5 -5.921875 1.875 -5.578125 1.4375 -4.890625 L 1.4375 -5.765625 L 0.59375 -5.765625 Z M 3.125 -5.078125 C 4.140625 -5.078125 4.796875 -4.1875 4.796875 -2.8125 C 4.796875 -1.5 4.125 -0.609375 3.125 -0.609375 C 2.140625 -0.609375 1.515625 -1.484375 1.515625 -2.84375 C 1.515625 -4.1875 2.140625 -5.078125 3.125 -5.078125 Z M 3.125 -5.078125 "/>
</g>
<g id="glyph-1-8">
<path d="M 2.796875 -5.765625 L 1.84375 -5.765625 L 1.84375 -7.34375 L 0.9375 -7.34375 L 0.9375 -5.765625 L 0.15625 -5.765625 L 0.15625 -5.015625 L 0.9375 -5.015625 L 0.9375 -0.65625 C 0.9375 -0.0625 1.328125 0.25 2.046875 0.25 C 2.28125 0.25 2.484375 0.234375 2.796875 0.171875 L 2.796875 -0.59375 C 2.65625 -0.5625 2.546875 -0.546875 2.359375 -0.546875 C 1.953125 -0.546875 1.84375 -0.65625 1.84375 -1.0625 L 1.84375 -5.015625 L 2.796875 -5.015625 Z M 2.796875 -5.765625 "/>
</g>
<g id="glyph-1-9">
<path d="M 0.765625 -8.015625 L 0.765625 0 L 1.6875 0 L 1.6875 -3.171875 C 1.6875 -4.359375 2.296875 -5.125 3.25 -5.125 C 3.546875 -5.125 3.84375 -5.03125 4.0625 -4.875 C 4.328125 -4.671875 4.4375 -4.40625 4.4375 -4 L 4.4375 0 L 5.34375 0 L 5.34375 -4.359375 C 5.34375 -5.328125 4.65625 -5.921875 3.53125 -5.921875 C 2.71875 -5.921875 2.21875 -5.671875 1.6875 -4.96875 L 1.6875 -8.015625 Z M 0.765625 -8.015625 "/>
</g>
<g id="glyph-2-0">
</g>
<g id="glyph-2-1">
<path d="M -8.015625 -5.4375 L -8.015625 -4.53125 L -5.03125 -4.53125 C -5.625 -4.140625 -5.921875 -3.53125 -5.921875 -2.765625 C -5.921875 -1.265625 -4.734375 -0.28125 -2.890625 -0.28125 C -0.953125 -0.28125 0.25 -1.234375 0.25 -2.796875 C 0.25 -3.59375 -0.046875 -4.140625 -0.765625 -4.625 L 0 -4.625 L 0 -5.4375 Z M -5.078125 -2.921875 C -5.078125 -3.90625 -4.203125 -4.53125 -2.8125 -4.53125 C -1.484375 -4.53125 -0.609375 -3.890625 -0.609375 -2.921875 C -0.609375 -1.90625 -1.5 -1.25 -2.84375 -1.25 C -4.1875 -1.25 -5.078125 -1.90625 -5.078125 -2.921875 Z M -5.078125 -2.921875 "/>
</g>
<g id="glyph-2-2">
<path d="M -2.578125 -5.640625 C -3.453125 -5.640625 -3.984375 -5.578125 -4.40625 -5.40625 C -5.359375 -5.03125 -5.921875 -4.15625 -5.921875 -3.078125 C -5.921875 -1.46875 -4.703125 -0.4375 -2.8125 -0.4375 C -0.90625 -0.4375 0.25 -1.4375 0.25 -3.0625 C 0.25 -4.375 -0.5 -5.296875 -1.75 -5.515625 L -1.75 -4.59375 C -0.984375 -4.34375 -0.59375 -3.828125 -0.59375 -3.09375 C -0.59375 -2.515625 -0.859375 -2.015625 -1.34375 -1.703125 C -1.671875 -1.484375 -2 -1.40625 -2.578125 -1.390625 Z M -3.328125 -1.421875 C -4.390625 -1.5 -5.078125 -2.140625 -5.078125 -3.0625 C -5.078125 -4 -4.359375 -4.65625 -3.328125 -4.65625 Z M -3.328125 -1.421875 "/>
</g>
<g id="glyph-2-3">
<path d="M -5.765625 -0.765625 L 0 -0.765625 L 0 -1.6875 L -3.171875 -1.6875 C -4.359375 -1.6875 -5.125 -2.3125 -5.125 -3.25 C -5.125 -3.984375 -4.6875 -4.4375 -4 -4.4375 L 0 -4.4375 L 0 -5.359375 L -4.359375 -5.359375 C -5.3125 -5.359375 -5.921875 -4.640625 -5.921875 -3.53125 C -5.921875 -2.671875 -5.59375 -2.125 -4.796875 -1.609375 L -5.765625 -1.609375 Z M -5.765625 -0.765625 "/>
</g>
<g id="glyph-2-4">
<path d="M -4.15625 -4.8125 C -5.296875 -4.8125 -5.921875 -4.0625 -5.921875 -2.734375 C -5.921875 -1.390625 -5.234375 -0.515625 -4.171875 -0.515625 C -3.265625 -0.515625 -2.84375 -0.984375 -2.515625 -2.34375 L -2.296875 -3.203125 C -2.140625 -3.84375 -1.90625 -4.09375 -1.5 -4.09375 C -0.953125 -4.09375 -0.59375 -3.546875 -0.59375 -2.75 C -0.59375 -2.25 -0.734375 -1.84375 -0.984375 -1.609375 C -1.140625 -1.46875 -1.3125 -1.390625 -1.71875 -1.34375 L -1.71875 -0.375 C -0.390625 -0.421875 0.25 -1.171875 0.25 -2.671875 C 0.25 -4.125 -0.46875 -5.046875 -1.578125 -5.046875 C -2.4375 -5.046875 -2.90625 -4.5625 -3.171875 -3.421875 L -3.390625 -2.546875 C -3.5625 -1.796875 -3.8125 -1.46875 -4.21875 -1.46875 C -4.75 -1.46875 -5.078125 -1.953125 -5.078125 -2.6875 C -5.078125 -3.4375 -4.765625 -3.828125 -4.15625 -3.84375 Z M -4.15625 -4.8125 "/>
</g>
<g id="glyph-2-5">
<path d="M -5.765625 -1.65625 L -5.765625 -0.734375 L 0 -0.734375 L 0 -1.65625 Z M -8.015625 -1.65625 L -8.015625 -0.71875 L -6.859375 -0.71875 L -6.859375 -1.65625 Z M -8.015625 -1.65625 "/>
</g>
<g id="glyph-2-6">
<path d="M -5.765625 -2.796875 L -5.765625 -1.84375 L -7.34375 -1.84375 L -7.34375 -0.9375 L -5.765625 -0.9375 L -5.765625 -0.15625 L -5.015625 -0.15625 L -5.015625 -0.9375 L -0.65625 -0.9375 C -0.0625 -0.9375 0.25 -1.328125 0.25 -2.046875 C 0.25 -2.28125 0.234375 -2.484375 0.171875 -2.796875 L -0.59375 -2.796875 C -0.5625 -2.65625 -0.546875 -2.546875 -0.546875 -2.359375 C -0.546875 -1.953125 -0.65625 -1.84375 -1.0625 -1.84375 L -5.015625 -1.84375 L -5.015625 -2.796875 Z M -5.765625 -2.796875 "/>
</g>
<g id="glyph-2-7">
<path d="M -5.765625 -4.265625 L -1.28125 -2.671875 L -5.765625 -1.203125 L -5.765625 -0.21875 L 0.015625 -2.171875 L 0.9375 -1.8125 C 1.34375 -1.65625 1.5 -1.46875 1.5 -1.078125 C 1.5 -0.921875 1.46875 -0.796875 1.4375 -0.59375 L 2.25 -0.59375 C 2.359375 -0.78125 2.390625 -0.96875 2.390625 -1.203125 C 2.390625 -1.5 2.296875 -1.828125 2.125 -2.0625 C 1.90625 -2.359375 1.671875 -2.515625 1.203125 -2.6875 L -5.765625 -5.265625 Z M -5.765625 -4.265625 "/>
</g>
<g id="glyph-3-0">
</g>
<g id="glyph-3-1">
<path d="M 1.171875 0 L 4.890625 0 C 7.3125 0 8.8125 -1.828125 8.8125 -4.8125 C 8.8125 -7.796875 7.328125 -9.625 4.890625 -9.625 L 1.171875 -9.625 Z M 2.40625 -1.078125 L 2.40625 -8.546875 L 4.671875 -8.546875 C 6.578125 -8.546875 7.578125 -7.265625 7.578125 -4.8125 C 7.578125 -2.359375 6.578125 -1.078125 4.671875 -1.078125 Z M 2.40625 -1.078125 "/>
</g>
<g id="glyph-3-2">
<path d="M 6.765625 -3.09375 C 6.765625 -4.140625 6.6875 -4.78125 6.5 -5.296875 C 6.046875 -6.4375 4.984375 -7.109375 3.703125 -7.109375 C 1.765625 -7.109375 0.53125 -5.65625 0.53125 -3.359375 C 0.53125 -1.078125 1.71875 0.296875 3.671875 0.296875 C 5.25 0.296875 6.34375 -0.59375 6.625 -2.09375 L 5.515625 -2.09375 C 5.21875 -1.1875 4.59375 -0.71875 3.703125 -0.71875 C 3.015625 -0.71875 2.421875 -1.03125 2.046875 -1.609375 C 1.78125 -2 1.6875 -2.40625 1.671875 -3.09375 Z M 1.703125 -3.984375 C 1.796875 -5.265625 2.578125 -6.09375 3.6875 -6.09375 C 4.8125 -6.09375 5.578125 -5.234375 5.578125 -3.984375 Z M 1.703125 -3.984375 "/>
</g>
<g id="glyph-3-3">
<path d="M 0.921875 -6.921875 L 0.921875 0 L 2.03125 0 L 2.03125 -3.8125 C 2.03125 -5.234375 2.765625 -6.15625 3.90625 -6.15625 C 4.78125 -6.15625 5.328125 -5.625 5.328125 -4.796875 L 5.328125 0 L 6.4375 0 L 6.4375 -5.234375 C 6.4375 -6.375 5.578125 -7.109375 4.234375 -7.109375 C 3.203125 -7.109375 2.546875 -6.71875 1.9375 -5.75 L 1.9375 -6.921875 Z M 0.921875 -6.921875 "/>
</g>
<g id="glyph-3-4">
<path d="M 5.78125 -4.984375 C 5.765625 -6.34375 4.875 -7.109375 3.28125 -7.109375 C 1.65625 -7.109375 0.625 -6.28125 0.625 -5 C 0.625 -3.921875 1.171875 -3.40625 2.8125 -3.015625 L 3.84375 -2.765625 C 4.609375 -2.578125 4.90625 -2.296875 4.90625 -1.8125 C 4.90625 -1.15625 4.265625 -0.71875 3.296875 -0.71875 C 2.703125 -0.71875 2.203125 -0.890625 1.921875 -1.171875 C 1.75 -1.375 1.671875 -1.578125 1.609375 -2.0625 L 0.453125 -2.0625 C 0.5 -0.46875 1.40625 0.296875 3.203125 0.296875 C 4.953125 0.296875 6.0625 -0.546875 6.0625 -1.890625 C 6.0625 -2.921875 5.484375 -3.484375 4.109375 -3.8125 L 3.046875 -4.0625 C 2.15625 -4.28125 1.765625 -4.5625 1.765625 -5.0625 C 1.765625 -5.703125 2.34375 -6.09375 3.234375 -6.09375 C 4.125 -6.09375 4.59375 -5.71875 4.625 -4.984375 Z M 5.78125 -4.984375 "/>
</g>
<g id="glyph-3-5">
<path d="M 1.984375 -6.921875 L 0.890625 -6.921875 L 0.890625 0 L 1.984375 0 Z M 1.984375 -9.625 L 0.875 -9.625 L 0.875 -8.234375 L 1.984375 -8.234375 Z M 1.984375 -9.625 "/>
</g>
<g id="glyph-3-6">
<path d="M 3.359375 -6.921875 L 2.21875 -6.921875 L 2.21875 -8.8125 L 1.125 -8.8125 L 1.125 -6.921875 L 0.1875 -6.921875 L 0.1875 -6.015625 L 1.125 -6.015625 L 1.125 -0.796875 C 1.125 -0.078125 1.59375 0.296875 2.453125 0.296875 C 2.75 0.296875 2.984375 0.28125 3.359375 0.21875 L 3.359375 -0.71875 C 3.1875 -0.671875 3.046875 -0.65625 2.828125 -0.65625 C 2.34375 -0.65625 2.21875 -0.796875 2.21875 -1.28125 L 2.21875 -6.015625 L 3.359375 -6.015625 Z M 3.359375 -6.921875 "/>
</g>
<g id="glyph-3-7">
<path d="M 5.125 -6.921875 L 3.203125 -1.53125 L 1.4375 -6.921875 L 0.265625 -6.921875 L 2.59375 0.03125 L 2.171875 1.125 C 2 1.609375 1.75 1.796875 1.296875 1.796875 C 1.109375 1.796875 0.953125 1.765625 0.71875 1.71875 L 0.71875 2.703125 C 0.9375 2.828125 1.15625 2.875 1.453125 2.875 C 1.8125 2.875 2.1875 2.765625 2.484375 2.546875 C 2.828125 2.296875 3.03125 2 3.234375 1.453125 L 6.3125 -6.921875 Z M 5.125 -6.921875 "/>
</g>
<g id="glyph-3-8">
</g>
<g id="glyph-3-9">
<path d="M 2.421875 -4.078125 L 5.453125 -4.078125 C 6.203125 -4.078125 6.796875 -4.296875 7.3125 -4.765625 C 7.890625 -5.296875 8.140625 -5.921875 8.140625 -6.796875 C 8.140625 -8.609375 7.078125 -9.625 5.171875 -9.625 L 1.203125 -9.625 L 1.203125 0 L 2.421875 0 Z M 2.421875 -5.15625 L 2.421875 -8.546875 L 4.984375 -8.546875 C 6.171875 -8.546875 6.859375 -7.90625 6.859375 -6.859375 C 6.859375 -5.796875 6.171875 -5.15625 4.984375 -5.15625 Z M 2.421875 -5.15625 "/>
</g>
<g id="glyph-3-10">
<path d="M 2 -9.625 L 0.890625 -9.625 L 0.890625 0 L 2 0 Z M 2 -9.625 "/>
</g>
<g id="glyph-3-11">
<path d="M 3.59375 -7.109375 C 1.640625 -7.109375 0.46875 -5.734375 0.46875 -3.40625 C 0.46875 -1.0625 1.640625 0.296875 3.609375 0.296875 C 5.5625 0.296875 6.734375 -1.078125 6.734375 -3.359375 C 6.734375 -5.75 5.59375 -7.109375 3.59375 -7.109375 Z M 3.609375 -6.09375 C 4.84375 -6.09375 5.578125 -5.078125 5.578125 -3.359375 C 5.578125 -1.734375 4.8125 -0.71875 3.609375 -0.71875 C 2.375 -0.71875 1.625 -1.734375 1.625 -3.40625 C 1.625 -5.078125 2.375 -6.09375 3.609375 -6.09375 Z M 3.609375 -6.09375 "/>
</g>
<g id="glyph-3-12">
<path d="M 3.40625 -6.921875 L 2.25 -6.921875 L 2.25 -8 C 2.25 -8.46875 2.515625 -8.703125 3.03125 -8.703125 C 3.109375 -8.703125 3.15625 -8.703125 3.40625 -8.6875 L 3.40625 -9.59375 C 3.15625 -9.65625 3.015625 -9.671875 2.78125 -9.671875 C 1.765625 -9.671875 1.15625 -9.078125 1.15625 -8.09375 L 1.15625 -6.921875 L 0.234375 -6.921875 L 0.234375 -6.015625 L 1.15625 -6.015625 L 1.15625 0 L 2.25 0 L 2.25 -6.015625 L 3.40625 -6.015625 Z M 3.40625 -6.921875 "/>
</g>
<g id="glyph-3-13">
<path d="M 5.171875 0 L 8.515625 -9.625 L 7.203125 -9.625 L 4.546875 -1.484375 L 1.71875 -9.625 L 0.390625 -9.625 L 3.859375 0 Z M 5.171875 0 "/>
</g>
<g id="glyph-3-14">
<path d="M 7.0625 -0.640625 C 6.9375 -0.625 6.890625 -0.625 6.828125 -0.625 C 6.4375 -0.625 6.234375 -0.8125 6.234375 -1.15625 L 6.234375 -5.234375 C 6.234375 -6.453125 5.328125 -7.109375 3.625 -7.109375 C 2.609375 -7.109375 1.8125 -6.828125 1.328125 -6.3125 C 1.015625 -5.953125 0.890625 -5.5625 0.859375 -4.875 L 1.96875 -4.875 C 2.0625 -5.71875 2.5625 -6.09375 3.59375 -6.09375 C 4.59375 -6.09375 5.140625 -5.734375 5.140625 -5.0625 L 5.140625 -4.78125 C 5.125 -4.296875 4.890625 -4.125 3.984375 -4.015625 C 2.421875 -3.8125 2.1875 -3.765625 1.765625 -3.59375 C 0.96875 -3.25 0.546875 -2.640625 0.546875 -1.75 C 0.546875 -0.484375 1.421875 0.296875 2.828125 0.296875 C 3.703125 0.296875 4.390625 0 5.171875 -0.71875 C 5.25 0 5.59375 0.296875 6.3125 0.296875 C 6.546875 0.296875 6.6875 0.28125 7.0625 0.1875 Z M 5.140625 -2.171875 C 5.140625 -1.8125 5.03125 -1.578125 4.703125 -1.28125 C 4.25 -0.875 3.703125 -0.65625 3.0625 -0.65625 C 2.203125 -0.65625 1.703125 -1.0625 1.703125 -1.765625 C 1.703125 -2.5 2.171875 -2.859375 3.359375 -3.03125 C 4.546875 -3.1875 4.765625 -3.25 5.140625 -3.421875 Z M 5.140625 -2.171875 "/>
</g>
<g id="glyph-3-15">
<path d="M 0.90625 -6.921875 L 0.90625 0 L 2.015625 0 L 2.015625 -3.59375 C 2.03125 -5.25 2.71875 -6 4.234375 -5.953125 L 4.234375 -7.078125 C 4.046875 -7.109375 3.953125 -7.109375 3.8125 -7.109375 C 3.109375 -7.109375 2.5625 -6.6875 1.921875 -5.671875 L 1.921875 -6.921875 Z M 0.90625 -6.921875 "/>
</g>
<g id="glyph-3-16">
<path d="M 6.171875 0 L 8.890625 -8.0625 L 8.890625 0 L 10.046875 0 L 10.046875 -9.625 L 8.34375 -9.625 L 5.546875 -1.234375 L 2.6875 -9.625 L 0.984375 -9.625 L 0.984375 0 L 2.15625 0 L 2.15625 -8.0625 L 4.890625 0 Z M 6.171875 0 "/>
</g>
<g id="glyph-3-17">
<path d="M 0.71875 2.875 L 1.828125 2.875 L 1.828125 -0.71875 C 2.40625 -0.015625 3.046875 0.296875 3.953125 0.296875 C 5.75 0.296875 6.90625 -1.140625 6.90625 -3.34375 C 6.90625 -5.671875 5.765625 -7.109375 3.9375 -7.109375 C 3 -7.109375 2.25 -6.6875 1.734375 -5.875 L 1.734375 -6.921875 L 0.71875 -6.921875 Z M 3.75 -6.09375 C 4.96875 -6.09375 5.75 -5.015625 5.75 -3.359375 C 5.75 -1.796875 4.953125 -0.71875 3.75 -0.71875 C 2.578125 -0.71875 1.828125 -1.78125 1.828125 -3.40625 C 1.828125 -5.03125 2.578125 -6.09375 3.75 -6.09375 Z M 3.75 -6.09375 "/>
</g>
<g id="glyph-3-18">
<path d="M 0.921875 -9.625 L 0.921875 0 L 2.015625 0 L 2.015625 -3.8125 C 2.015625 -5.234375 2.765625 -6.15625 3.890625 -6.15625 C 4.265625 -6.15625 4.609375 -6.046875 4.875 -5.84375 C 5.1875 -5.609375 5.328125 -5.28125 5.328125 -4.796875 L 5.328125 0 L 6.421875 0 L 6.421875 -5.234375 C 6.421875 -6.390625 5.578125 -7.109375 4.234375 -7.109375 C 3.265625 -7.109375 2.671875 -6.8125 2.015625 -5.96875 L 2.015625 -9.625 Z M 0.921875 -9.625 "/>
</g>
</g>
<clipPath id="clip-0">
<path clip-rule="nonzero" d="M 37.152344 23.957031 L 600.523438 23.957031 L 600.523438 374.597656 L 37.152344 374.597656 Z M 37.152344 23.957031 "/>
</clipPath>
<clipPath id="clip-1">
<path clip-rule="nonzero" d="M 37.152344 308 L 600.523438 308 L 600.523438 309 L 37.152344 309 Z M 37.152344 308 "/>
</clipPath>
<clipPath id="clip-2">
<path clip-rule="nonzero" d="M 37.152344 208 L 600.523438 208 L 600.523438 210 L 37.152344 210 Z M 37.152344 208 "/>
</clipPath>
<clipPath id="clip-3">
<path clip-rule="nonzero" d="M 37.152344 109 L 600.523438 109 L 600.523438 110 L 37.152344 110 Z M 37.152344 109 "/>
</clipPath>
<clipPath id="clip-4">
<path clip-rule="nonzero" d="M 133 23.957031 L 135 23.957031 L 135 374.597656 L 133 374.597656 Z M 133 23.957031 "/>
</clipPath>
<clipPath id="clip-5">
<path clip-rule="nonzero" d="M 276 23.957031 L 277 23.957031 L 277 374.597656 L 276 374.597656 Z M 276 23.957031 "/>
</clipPath>
<clipPath id="clip-6">
<path clip-rule="nonzero" d="M 418 23.957031 L 419 23.957031 L 419 374.597656 L 418 374.597656 Z M 418 23.957031 "/>
</clipPath>
<clipPath id="clip-7">
<path clip-rule="nonzero" d="M 560 23.957031 L 561 23.957031 L 561 374.597656 L 560 374.597656 Z M 560 23.957031 "/>
</clipPath>
<clipPath id="clip-8">
<path clip-rule="nonzero" d="M 37.152344 358 L 600.523438 358 L 600.523438 359 L 37.152344 359 Z M 37.152344 358 "/>
</clipPath>
<clipPath id="clip-9">
<path clip-rule="nonzero" d="M 37.152344 258 L 600.523438 258 L 600.523438 260 L 37.152344 260 Z M 37.152344 258 "/>
</clipPath>
<clipPath id="clip-10">
<path clip-rule="nonzero" d="M 37.152344 158 L 600.523438 158 L 600.523438 160 L 37.152344 160 Z M 37.152344 158 "/>
</clipPath>
<clipPath id="clip-11">
<path clip-rule="nonzero" d="M 37.152344 59 L 600.523438 59 L 600.523438 60 L 37.152344 60 Z M 37.152344 59 "/>
</clipPath>
<clipPath id="clip-12">
<path clip-rule="nonzero" d="M 62 23.957031 L 64 23.957031 L 64 374.597656 L 62 374.597656 Z M 62 23.957031 "/>
</clipPath>
<clipPath id="clip-13">
<path clip-rule="nonzero" d="M 204 23.957031 L 206 23.957031 L 206 374.597656 L 204 374.597656 Z M 204 23.957031 "/>
</clipPath>
<clipPath id="clip-14">
<path clip-rule="nonzero" d="M 347 23.957031 L 348 23.957031 L 348 374.597656 L 347 374.597656 Z M 347 23.957031 "/>
</clipPath>
<clipPath id="clip-15">
<path clip-rule="nonzero" d="M 489 23.957031 L 490 23.957031 L 490 374.597656 L 489 374.597656 Z M 489 23.957031 "/>
</clipPath>
<clipPath id="clip-16">
<path clip-rule="nonzero" d="M 37.152344 23.957031 L 600.523438 23.957031 L 600.523438 374.597656 L 37.152344 374.597656 Z M 37.152344 23.957031 "/>
</clipPath>
</defs>
<rect x="-60.6" y="-40.9" width="727.2" height="490.8" fill="rgb(100%, 100%, 100%)" fill-opacity="1"/>
<rect x="-60.6" y="-40.9" width="727.2" height="490.8" fill="rgb(100%, 100%, 100%)" fill-opacity="1"/>
<path fill="none" stroke-width="1.066978" stroke-linecap="round" stroke-linejoin="round" stroke="rgb(100%, 100%, 100%)" stroke-opacity="1" stroke-miterlimit="10" d="M 0 409 L 606 409 L 606 0 L 0 0 Z M 0 409 "/>
<g clip-path="url(#clip-0)">
<path fill-rule="nonzero" fill="rgb(100%, 100%, 100%)" fill-opacity="1" d="M 37.152344 374.597656 L 600.523438 374.597656 L 600.523438 23.957031 L 37.152344 23.957031 Z M 37.152344 374.597656 "/>
</g>
<g clip-path="url(#clip-1)">
<path fill="none" stroke-width="0.266745" stroke-linecap="butt" stroke-linejoin="round" stroke="rgb(87.058824%, 87.058824%, 87.058824%)" stroke-opacity="1" stroke-miterlimit="10" d="M 37.152344 308.78125 L 600.519531 308.78125 "/>
</g>
<g clip-path="url(#clip-2)">
<path fill="none" stroke-width="0.266745" stroke-linecap="butt" stroke-linejoin="round" stroke="rgb(87.058824%, 87.058824%, 87.058824%)" stroke-opacity="1" stroke-miterlimit="10" d="M 37.152344 209.027344 L 600.519531 209.027344 "/>
</g>
<g clip-path="url(#clip-3)">
<path fill="none" stroke-width="0.266745" stroke-linecap="butt" stroke-linejoin="round" stroke="rgb(87.058824%, 87.058824%, 87.058824%)" stroke-opacity="1" stroke-miterlimit="10" d="M 37.152344 109.269531 L 600.519531 109.269531 "/>
</g>
<g clip-path="url(#clip-4)">
<path fill="none" stroke-width="0.266745" stroke-linecap="butt" stroke-linejoin="round" stroke="rgb(87.058824%, 87.058824%, 87.058824%)" stroke-opacity="1" stroke-miterlimit="10" d="M 133.890625 374.597656 L 133.890625 23.957031 "/>
</g>
<g clip-path="url(#clip-5)">
<path fill="none" stroke-width="0.266745" stroke-linecap="butt" stroke-linejoin="round" stroke="rgb(87.058824%, 87.058824%, 87.058824%)" stroke-opacity="1" stroke-miterlimit="10" d="M 276.15625 374.597656 L 276.15625 23.957031 "/>
</g>
<g clip-path="url(#clip-6)">
<path fill="none" stroke-width="0.266745" stroke-linecap="butt" stroke-linejoin="round" stroke="rgb(87.058824%, 87.058824%, 87.058824%)" stroke-opacity="1" stroke-miterlimit="10" d="M 418.421875 374.597656 L 418.421875 23.957031 "/>
</g>
<g clip-path="url(#clip-7)">
<path fill="none" stroke-width="0.266745" stroke-linecap="butt" stroke-linejoin="round" stroke="rgb(87.058824%, 87.058824%, 87.058824%)" stroke-opacity="1" stroke-miterlimit="10" d="M 560.6875 374.597656 L 560.6875 23.957031 "/>
</g>
<g clip-path="url(#clip-8)">
<path fill="none" stroke-width="0.533489" stroke-linecap="butt" stroke-linejoin="round" stroke="rgb(87.058824%, 87.058824%, 87.058824%)" stroke-opacity="1" stroke-miterlimit="10" d="M 37.152344 358.660156 L 600.519531 358.660156 "/>
</g>
<g clip-path="url(#clip-9)">
<path fill="none" stroke-width="0.533489" stroke-linecap="butt" stroke-linejoin="round" stroke="rgb(87.058824%, 87.058824%, 87.058824%)" stroke-opacity="1" stroke-miterlimit="10" d="M 37.152344 258.90625 L 600.519531 258.90625 "/>
</g>
<g clip-path="url(#clip-10)">
<path fill="none" stroke-width="0.533489" stroke-linecap="butt" stroke-linejoin="round" stroke="rgb(87.058824%, 87.058824%, 87.058824%)" stroke-opacity="1" stroke-miterlimit="10" d="M 37.152344 159.148438 L 600.519531 159.148438 "/>
</g>
<g clip-path="url(#clip-11)">
<path fill="none" stroke-width="0.533489" stroke-linecap="butt" stroke-linejoin="round" stroke="rgb(87.058824%, 87.058824%, 87.058824%)" stroke-opacity="1" stroke-miterlimit="10" d="M 37.152344 59.390625 L 600.519531 59.390625 "/>
</g>
<g clip-path="url(#clip-12)">
<path fill="none" stroke-width="0.533489" stroke-linecap="butt" stroke-linejoin="round" stroke="rgb(87.058824%, 87.058824%, 87.058824%)" stroke-opacity="1" stroke-miterlimit="10" d="M 62.757812 374.597656 L 62.757812 23.957031 "/>
</g>
<g clip-path="url(#clip-13)">
<path fill="none" stroke-width="0.533489" stroke-linecap="butt" stroke-linejoin="round" stroke="rgb(87.058824%, 87.058824%, 87.058824%)" stroke-opacity="1" stroke-miterlimit="10" d="M 205.023438 374.597656 L 205.023438 23.957031 "/>
</g>
<g clip-path="url(#clip-14)">
<path fill="none" stroke-width="0.533489" stroke-linecap="butt" stroke-linejoin="round" stroke="rgb(87.058824%, 87.058824%, 87.058824%)" stroke-opacity="1" stroke-miterlimit="10" d="M 347.289062 374.597656 L 347.289062 23.957031 "/>
</g>
<g clip-path="url(#clip-15)">
<path fill="none" stroke-width="0.533489" stroke-linecap="butt" stroke-linejoin="round" stroke="rgb(87.058824%, 87.058824%, 87.058824%)" stroke-opacity="1" stroke-miterlimit="10" d="M 489.554688 374.597656 L 489.554688 23.957031 "/>
</g>
<path fill-rule="nonzero" fill="rgb(11.764706%, 56.470588%, 100%)" fill-opacity="0.298039" d="M 62.757812 358.558594 L 63.761719 358.441406 L 64.761719 358.269531 L 65.765625 358.074219 L 66.765625 357.882812 L 67.769531 357.71875 L 68.773438 357.5625 L 69.773438 357.390625 L 70.777344 357.214844 L 71.777344 357.09375 L 72.78125 357.066406 L 73.785156 357.121094 L 74.785156 357.210938 L 75.789062 357.300781 L 76.789062 357.382812 L 77.792969 357.449219 L 78.792969 357.503906 L 79.796875 357.558594 L 80.800781 357.617188 L 81.800781 357.679688 L 82.804688 357.734375 L 83.804688 357.777344 L 84.808594 357.824219 L 85.808594 357.871094 L 86.8125 357.914062 L 87.816406 357.933594 L 88.816406 357.933594 L 89.820312 357.917969 L 90.820312 357.910156 L 91.824219 357.917969 L 92.828125 357.933594 L 93.828125 357.941406 L 94.832031 357.9375 L 95.832031 357.9375 L 96.835938 357.945312 L 97.835938 357.957031 L 98.839844 357.96875 L 99.84375 357.984375 L 100.84375 358 L 101.847656 357.996094 L 102.847656 357.980469 L 103.851562 357.949219 L 104.851562 357.925781 L 105.855469 357.914062 L 106.859375 357.90625 L 107.859375 357.898438 L 108.863281 357.878906 L 109.863281 357.859375 L 110.867188 357.847656 L 111.867188 357.84375 L 112.871094 357.832031 L 113.875 357.808594 L 114.875 357.777344 L 115.878906 357.75 L 116.878906 357.722656 L 117.882812 357.703125 L 118.886719 357.691406 L 119.886719 357.683594 L 120.890625 357.664062 L 121.890625 357.632812 L 122.894531 357.597656 L 123.894531 357.5625 L 124.898438 357.523438 L 125.902344 357.480469 L 126.902344 357.433594 L 127.90625 357.394531 L 128.90625 357.359375 L 129.910156 357.332031 L 130.910156 357.308594 L 131.914062 357.277344 L 132.917969 357.234375 L 133.917969 357.167969 L 134.921875 357.085938 L 135.921875 357 L 136.925781 356.929688 L 137.929688 356.890625 L 138.929688 356.871094 L 139.933594 356.839844 L 140.933594 356.785156 L 141.9375 356.710938 L 142.9375 356.636719 L 143.941406 356.566406 L 144.945312 356.511719 L 145.945312 356.453125 L 146.949219 356.382812 L 147.949219 356.289062 L 148.953125 356.179688 L 149.953125 356.070312 L 150.957031 355.976562 L 151.960938 355.894531 L 152.960938 355.820312 L 153.964844 355.738281 L 154.964844 355.625 L 155.96875 355.457031 L 156.972656 355.253906 L 157.972656 355.054688 L 158.976562 354.886719 L 159.976562 354.769531 L 160.980469 354.679688 L 161.980469 354.570312 L 162.984375 354.410156 L 163.988281 354.234375 L 164.988281 354.097656 L 165.992188 353.992188 L 166.992188 353.859375 L 167.996094 353.675781 L 168.996094 353.449219 L 170 353.222656 L 171.003906 353.019531 L 172.003906 352.851562 L 173.007812 352.675781 L 174.007812 352.445312 L 175.011719 352.148438 L 176.015625 351.847656 L 177.015625 351.605469 L 178.019531 351.433594 L 179.019531 351.28125 L 180.023438 351.089844 L 181.023438 350.828125 L 182.027344 350.492188 L 183.03125 350.132812 L 184.03125 349.824219 L 185.035156 349.589844 L 186.035156 349.355469 L 187.039062 349.042969 L 188.039062 348.644531 L 189.042969 348.21875 L 190.046875 347.8125 L 191.046875 347.457031 L 192.050781 347.148438 L 193.050781 346.832031 L 194.054688 346.429688 L 195.054688 345.902344 L 196.058594 345.355469 L 197.0625 344.914062 L 198.0625 344.554688 L 199.066406 344.207031 L 200.066406 343.800781 L 201.070312 343.238281 L 202.074219 342.488281 L 203.074219 341.746094 L 204.078125 341.234375 L 205.078125 340.894531 L 206.082031 340.523438 L 207.082031 339.976562 L 208.085938 339.226562 L 209.089844 338.359375 L 210.089844 337.535156 L 211.09375 336.898438 L 212.09375 336.34375 L 213.097656 335.65625 L 214.097656 334.734375 L 215.101562 333.675781 L 216.105469 332.660156 L 217.105469 331.78125 L 218.109375 331.035156 L 219.109375 330.273438 L 220.113281 329.273438 L 221.117188 327.925781 L 222.117188 326.40625 L 223.121094 325.070312 L 224.121094 324.027344 L 225.125 323.027344 L 226.125 321.84375 L 227.128906 320.375 L 228.132812 318.628906 L 229.132812 316.746094 L 230.136719 315.109375 L 231.136719 313.921875 L 232.140625 312.804688 L 233.140625 311.320312 L 234.144531 309.382812 L 235.148438 307.15625 L 236.148438 304.832031 L 237.152344 302.597656 L 238.152344 300.589844 L 239.15625 298.503906 L 240.160156 295.945312 L 241.160156 292.867188 L 242.164062 289.707031 L 243.164062 286.859375 L 244.167969 284.164062 L 245.167969 281.367188 L 246.171875 278.257812 L 247.175781 274.558594 L 248.175781 270.230469 L 249.179688 265.988281 L 250.179688 262.65625 L 251.183594 259.894531 L 252.183594 256.773438 L 253.1875 252.769531 L 254.191406 247.863281 L 255.191406 242.296875 L 256.195312 236.679688 L 257.195312 231.753906 L 258.199219 227.449219 L 259.203125 222.820312 L 260.203125 217.175781 L 261.207031 210.765625 L 262.207031 204.46875 L 263.210938 198.890625 L 264.210938 194.027344 L 265.214844 189.378906 L 266.21875 183.925781 L 267.21875 176.90625 L 268.222656 168.859375 L 269.222656 161.664062 L 270.226562 156.441406 L 271.226562 152.070312 L 272.230469 147.09375 L 273.234375 140.796875 L 274.234375 133.039062 L 275.238281 124.546875 L 276.238281 117.433594 L 277.242188 113.183594 L 278.242188 109.804688 L 279.246094 104.734375 L 280.25 97.753906 L 281.25 90.203125 L 282.253906 83.46875 L 283.253906 78.402344 L 284.257812 75.375 L 285.261719 72.992188 L 286.261719 69.386719 L 287.265625 64.160156 L 288.265625 59.0625 L 289.269531 56.089844 L 290.269531 55.042969 L 291.273438 54.65625 L 292.277344 53.605469 L 293.277344 50.65625 L 294.28125 45.671875 L 295.28125 41.039062 L 296.285156 39.898438 L 297.285156 41.902344 L 298.289062 43.992188 L 299.292969 44.382812 L 300.292969 43.382812 L 301.296875 42.007812 L 302.296875 41.554688 L 303.300781 43.445312 L 304.304688 47.550781 L 305.304688 51.519531 L 306.308594 53.476562 L 307.308594 53.882812 L 308.3125 54.761719 L 309.3125 57.597656 L 310.316406 62.277344 L 311.320312 67.84375 L 312.320312 72.492188 L 313.324219 74.753906 L 314.324219 75.34375 L 315.328125 77.335938 L 316.328125 82.789062 L 317.332031 89.617188 L 318.335938 95.207031 L 319.335938 98.972656 L 320.339844 101.410156 L 321.339844 103.503906 L 322.34375 107.148438 L 323.347656 113.601562 L 324.347656 120.96875 L 325.351562 126.863281 L 326.351562 130.929688 L 327.355469 134.339844 L 328.355469 138.328125 L 329.359375 143.351562 L 330.363281 149.351562 L 331.363281 155.355469 L 332.367188 160.175781 L 333.367188 163.625 L 334.371094 166.855469 L 335.371094 171.261719 L 336.375 176.886719 L 337.378906 182.828125 L 338.378906 188.230469 L 339.382812 192.503906 L 340.382812 195.566406 L 341.386719 198.441406 L 342.390625 202.726562 L 343.390625 208.617188 L 344.394531 214.535156 L 345.394531 219.234375 L 346.398438 222.710938 L 347.398438 225.570312 L 348.402344 228.503906 L 349.40625 232.15625 L 350.40625 236.65625 L 351.410156 241.15625 L 352.410156 244.886719 L 353.414062 247.953125 L 354.414062 251.039062 L 355.417969 254.652344 L 356.421875 258.652344 L 357.421875 262.722656 L 358.425781 266.375 L 359.425781 269.179688 L 360.429688 271.292969 L 361.429688 273.6875 L 362.433594 277.042969 L 363.4375 280.769531 L 364.4375 284.058594 L 365.441406 286.679688 L 366.441406 288.796875 L 367.445312 290.765625 L 368.449219 293.0625 L 369.449219 295.96875 L 370.453125 299.046875 L 371.453125 301.675781 L 372.457031 303.695312 L 373.457031 305.378906 L 374.460938 307.070312 L 375.464844 308.949219 L 376.464844 311.054688 L 377.46875 313.234375 L 378.46875 315.214844 L 379.472656 316.875 L 380.472656 318.390625 L 381.476562 320.066406 L 382.480469 321.988281 L 383.480469 323.960938 L 384.484375 325.765625 L 385.484375 327.238281 L 386.488281 328.34375 L 387.492188 329.28125 L 388.492188 330.40625 L 389.496094 331.835938 L 390.496094 333.285156 L 391.5 334.492188 L 392.5 335.46875 L 393.503906 336.375 L 394.507812 337.324219 L 395.507812 338.378906 L 396.511719 339.527344 L 397.511719 340.632812 L 398.515625 341.574219 L 399.515625 342.355469 L 400.519531 343.082031 L 401.523438 343.847656 L 402.523438 344.640625 L 403.527344 345.429688 L 404.527344 346.152344 L 405.53125 346.742188 L 406.535156 347.214844 L 407.535156 347.695312 L 408.539062 348.296875 L 409.539062 348.960938 L 410.542969 349.589844 L 411.542969 350.140625 L 412.546875 350.617188 L 413.550781 351.039062 L 414.550781 351.441406 L 415.554688 351.871094 L 416.554688 352.296875 L 417.558594 352.660156 L 418.558594 352.953125 L 419.5625 353.21875 L 420.566406 353.480469 L 421.566406 353.746094 L 422.570312 354.007812 L 423.570312 354.246094 L 424.574219 354.453125 L 425.578125 354.625 L 426.578125 354.804688 L 427.582031 355.015625 L 428.582031 355.257812 L 429.585938 355.492188 L 430.585938 355.6875 L 431.589844 355.832031 L 432.59375 355.941406 L 433.59375 356.03125 L 434.597656 356.136719 L 435.597656 356.28125 L 436.601562 356.441406 L 437.601562 356.582031 L 438.605469 356.675781 L 439.609375 356.714844 L 440.609375 356.730469 L 441.613281 356.761719 L 442.613281 356.832031 L 443.617188 356.9375 L 444.617188 357.042969 L 445.621094 357.121094 L 446.625 357.167969 L 447.625 357.203125 L 448.628906 357.257812 L 449.628906 357.328125 L 450.632812 357.402344 L 451.636719 357.449219 L 452.636719 357.460938 L 453.640625 357.460938 L 454.640625 357.480469 L 455.644531 357.519531 L 456.644531 357.5625 L 457.648438 357.59375 L 458.652344 357.609375 L 459.652344 357.621094 L 460.65625 357.636719 L 461.65625 357.667969 L 462.660156 357.703125 L 463.660156 357.730469 L 464.664062 357.75 L 465.667969 357.765625 L 466.667969 357.785156 L 467.671875 357.808594 L 468.671875 357.839844 L 469.675781 357.863281 L 470.679688 357.867188 L 471.679688 357.859375 L 472.683594 357.851562 L 473.683594 357.863281 L 474.6875 357.894531 L 475.6875 357.929688 L 476.691406 357.949219 L 477.695312 357.945312 L 478.695312 357.925781 L 479.699219 357.902344 L 480.699219 357.886719 L 481.703125 357.894531 L 482.703125 357.914062 L 483.707031 357.933594 L 484.710938 357.941406 L 485.710938 357.941406 L 486.714844 357.9375 L 487.714844 357.925781 L 488.71875 357.914062 L 489.722656 357.90625 L 490.722656 357.90625 L 491.726562 357.914062 L 492.726562 357.921875 L 493.730469 357.929688 L 494.730469 357.941406 L 495.734375 357.957031 L 496.738281 357.976562 L 497.738281 357.992188 L 498.742188 357.996094 L 499.742188 357.992188 L 500.746094 357.988281 L 501.746094 357.988281 L 502.75 357.992188 L 503.753906 357.992188 L 504.753906 357.988281 L 505.757812 357.984375 L 506.757812 357.992188 L 508.765625 358.023438 L 509.765625 358.039062 L 510.769531 358.050781 L 511.769531 358.058594 L 512.773438 358.0625 L 513.773438 358.054688 L 514.777344 358.046875 L 515.78125 358.042969 L 516.78125 358.050781 L 517.785156 358.058594 L 518.785156 358.066406 L 519.789062 358.074219 L 520.789062 358.085938 L 521.792969 358.101562 L 522.796875 358.105469 L 523.796875 358.097656 L 524.800781 358.085938 L 525.800781 358.074219 L 526.804688 358.070312 L 527.808594 358.074219 L 528.808594 358.078125 L 529.8125 358.074219 L 530.8125 358.0625 L 531.816406 358.046875 L 532.816406 358.03125 L 533.820312 358.023438 L 534.824219 358.019531 L 535.824219 358.023438 L 536.828125 358.035156 L 537.828125 358.050781 L 538.832031 358.070312 L 539.832031 358.085938 L 540.835938 358.09375 L 541.839844 358.097656 L 543.84375 358.097656 L 544.84375 358.09375 L 545.847656 358.09375 L 546.847656 358.105469 L 548.855469 358.136719 L 549.855469 358.148438 L 550.859375 358.160156 L 551.859375 358.171875 L 553.867188 358.179688 L 554.867188 358.179688 L 555.871094 358.175781 L 556.871094 358.160156 L 557.875 358.140625 L 558.875 358.125 L 559.878906 358.125 L 560.882812 358.132812 L 561.882812 358.128906 L 562.886719 358.121094 L 563.886719 358.121094 L 564.890625 358.132812 L 565.890625 358.140625 L 566.894531 358.148438 L 570.902344 358.148438 L 571.90625 358.152344 L 572.910156 358.171875 L 573.910156 358.222656 L 574.914062 358.316406 L 574.914062 358.660156 L 62.757812 358.660156 Z M 62.757812 358.558594 "/>
<path fill="none" stroke-width="1.066978" stroke-linecap="butt" stroke-linejoin="round" stroke="rgb(0%, 0%, 0%)" stroke-opacity="1" stroke-miterlimit="10" d="M 62.757812 358.558594 L 63.761719 358.441406 L 64.761719 358.269531 L 65.765625 358.074219 L 66.765625 357.882812 L 67.769531 357.71875 L 68.773438 357.5625 L 69.773438 357.390625 L 70.777344 357.214844 L 71.777344 357.09375 L 72.78125 357.066406 L 73.785156 357.121094 L 74.785156 357.210938 L 75.789062 357.300781 L 76.789062 357.382812 L 77.792969 357.449219 L 78.792969 357.503906 L 79.796875 357.558594 L 80.800781 357.617188 L 81.800781 357.679688 L 82.804688 357.734375 L 83.804688 357.777344 L 84.808594 357.824219 L 85.808594 357.871094 L 86.8125 357.914062 L 87.816406 357.933594 L 88.816406 357.933594 L 89.820312 357.917969 L 90.820312 357.910156 L 91.824219 357.917969 L 92.828125 357.933594 L 93.828125 357.941406 L 94.832031 357.9375 L 95.832031 357.9375 L 96.835938 357.945312 L 97.835938 357.957031 L 98.839844 357.96875 L 99.84375 357.984375 L 100.84375 358 L 101.847656 357.996094 L 102.847656 357.980469 L 103.851562 357.949219 L 104.851562 357.925781 L 105.855469 357.914062 L 106.859375 357.90625 L 107.859375 357.898438 L 108.863281 357.878906 L 109.863281 357.859375 L 110.867188 357.847656 L 111.867188 357.84375 L 112.871094 357.832031 L 113.875 357.808594 L 114.875 357.777344 L 115.878906 357.75 L 116.878906 357.722656 L 117.882812 357.703125 L 118.886719 357.691406 L 119.886719 357.683594 L 120.890625 357.664062 L 121.890625 357.632812 L 122.894531 357.597656 L 123.894531 357.5625 L 124.898438 357.523438 L 125.902344 357.480469 L 126.902344 357.433594 L 127.90625 357.394531 L 128.90625 357.359375 L 129.910156 357.332031 L 130.910156 357.308594 L 131.914062 357.277344 L 132.917969 357.234375 L 133.917969 357.167969 L 134.921875 357.085938 L 135.921875 357 L 136.925781 356.929688 L 137.929688 356.890625 L 138.929688 356.871094 L 139.933594 356.839844 L 140.933594 356.785156 L 141.9375 356.710938 L 142.9375 356.636719 L 143.941406 356.566406 L 144.945312 356.511719 L 145.945312 356.453125 L 146.949219 356.382812 L 147.949219 356.289062 L 148.953125 356.179688 L 149.953125 356.070312 L 150.957031 355.976562 L 151.960938 355.894531 L 152.960938 355.820312 L 153.964844 355.738281 L 154.964844 355.625 L 155.96875 355.457031 L 156.972656 355.253906 L 157.972656 355.054688 L 158.976562 354.886719 L 159.976562 354.769531 L 160.980469 354.679688 L 161.980469 354.570312 L 162.984375 354.410156 L 163.988281 354.234375 L 164.988281 354.097656 L 165.992188 353.992188 L 166.992188 353.859375 L 167.996094 353.675781 L 168.996094 353.449219 L 170 353.222656 L 171.003906 353.019531 L 172.003906 352.851562 L 173.007812 352.675781 L 174.007812 352.445312 L 175.011719 352.148438 L 176.015625 351.847656 L 177.015625 351.605469 L 178.019531 351.433594 L 179.019531 351.28125 L 180.023438 351.089844 L 181.023438 350.828125 L 182.027344 350.492188 L 183.03125 350.132812 L 184.03125 349.824219 L 185.035156 349.589844 L 186.035156 349.355469 L 187.039062 349.042969 L 188.039062 348.644531 L 189.042969 348.21875 L 190.046875 347.8125 L 191.046875 347.457031 L 192.050781 347.148438 L 193.050781 346.832031 L 194.054688 346.429688 L 195.054688 345.902344 L 196.058594 345.355469 L 197.0625 344.914062 L 198.0625 344.554688 L 199.066406 344.207031 L 200.066406 343.800781 L 201.070312 343.238281 L 202.074219 342.488281 L 203.074219 341.746094 L 204.078125 341.234375 L 205.078125 340.894531 L 206.082031 340.523438 L 207.082031 339.976562 L 208.085938 339.226562 L 209.089844 338.359375 L 210.089844 337.535156 L 211.09375 336.898438 L 212.09375 336.34375 L 213.097656 335.65625 L 214.097656 334.734375 L 215.101562 333.675781 L 216.105469 332.660156 L 217.105469 331.78125 L 218.109375 331.035156 L 219.109375 330.273438 L 220.113281 329.273438 L 221.117188 327.925781 L 222.117188 326.40625 L 223.121094 325.070312 L 224.121094 324.027344 L 225.125 323.027344 L 226.125 321.84375 L 227.128906 320.375 L 228.132812 318.628906 L 229.132812 316.746094 L 230.136719 315.109375 L 231.136719 313.921875 L 232.140625 312.804688 L 233.140625 311.320312 L 234.144531 309.382812 L 235.148438 307.15625 L 236.148438 304.832031 L 237.152344 302.597656 L 238.152344 300.589844 L 239.15625 298.503906 L 240.160156 295.945312 L 241.160156 292.867188 L 242.164062 289.707031 L 243.164062 286.859375 L 244.167969 284.164062 L 245.167969 281.367188 L 246.171875 278.257812 L 247.175781 274.558594 L 248.175781 270.230469 L 249.179688 265.988281 L 250.179688 262.65625 L 251.183594 259.894531 L 252.183594 256.773438 L 253.1875 252.769531 L 254.191406 247.863281 L 255.191406 242.296875 L 256.195312 236.679688 L 257.195312 231.753906 L 258.199219 227.449219 L 259.203125 222.820312 L 260.203125 217.175781 L 261.207031 210.765625 L 262.207031 204.46875 L 263.210938 198.890625 L 264.210938 194.027344 L 265.214844 189.378906 L 266.21875 183.925781 L 267.21875 176.90625 L 268.222656 168.859375 L 269.222656 161.664062 L 270.226562 156.441406 L 271.226562 152.070312 L 272.230469 147.09375 L 273.234375 140.796875 L 274.234375 133.039062 L 275.238281 124.546875 L 276.238281 117.433594 L 277.242188 113.183594 L 278.242188 109.804688 L 279.246094 104.734375 L 280.25 97.753906 L 281.25 90.203125 L 282.253906 83.46875 L 283.253906 78.402344 L 284.257812 75.375 L 285.261719 72.992188 L 286.261719 69.386719 L 287.265625 64.160156 L 288.265625 59.0625 L 289.269531 56.089844 L 290.269531 55.042969 L 291.273438 54.65625 L 292.277344 53.605469 L 293.277344 50.65625 L 294.28125 45.671875 L 295.28125 41.039062 L 296.285156 39.898438 L 297.285156 41.902344 L 298.289062 43.992188 L 299.292969 44.382812 L 300.292969 43.382812 L 301.296875 42.007812 L 302.296875 41.554688 L 303.300781 43.445312 L 304.304688 47.550781 L 305.304688 51.519531 L 306.308594 53.476562 L 307.308594 53.882812 L 308.3125 54.761719 L 309.3125 57.597656 L 310.316406 62.277344 L 311.320312 67.84375 L 312.320312 72.492188 L 313.324219 74.753906 L 314.324219 75.34375 L 315.328125 77.335938 L 316.328125 82.789062 L 317.332031 89.617188 L 318.335938 95.207031 L 319.335938 98.972656 L 320.339844 101.410156 L 321.339844 103.503906 L 322.34375 107.148438 L 323.347656 113.601562 L 324.347656 120.96875 L 325.351562 126.863281 L 326.351562 130.929688 L 327.355469 134.339844 L 328.355469 138.328125 L 329.359375 143.351562 L 330.363281 149.351562 L 331.363281 155.355469 L 332.367188 160.175781 L 333.367188 163.625 L 334.371094 166.855469 L 335.371094 171.261719 L 336.375 176.886719 L 337.378906 182.828125 L 338.378906 188.230469 L 339.382812 192.503906 L 340.382812 195.566406 L 341.386719 198.441406 L 342.390625 202.726562 L 343.390625 208.617188 L 344.394531 214.535156 L 345.394531 219.234375 L 346.398438 222.710938 L 347.398438 225.570312 L 348.402344 228.503906 L 349.40625 232.15625 L 350.40625 236.65625 L 351.410156 241.15625 L 352.410156 244.886719 L 353.414062 247.953125 L 354.414062 251.039062 L 355.417969 254.652344 L 356.421875 258.652344 L 357.421875 262.722656 L 358.425781 266.375 L 359.425781 269.179688 L 360.429688 271.292969 L 361.429688 273.6875 L 362.433594 277.042969 L 363.4375 280.769531 L 364.4375 284.058594 L 365.441406 286.679688 L 366.441406 288.796875 L 367.445312 290.765625 L 368.449219 293.0625 L 369.449219 295.96875 L 370.453125 299.046875 L 371.453125 301.675781 L 372.457031 303.695312 L 373.457031 305.378906 L 374.460938 307.070312 L 375.464844 308.949219 L 376.464844 311.054688 L 377.46875 313.234375 L 378.46875 315.214844 L 379.472656 316.875 L 380.472656 318.390625 L 381.476562 320.066406 L 382.480469 321.988281 L 383.480469 323.960938 L 384.484375 325.765625 L 385.484375 327.238281 L 386.488281 328.34375 L 387.492188 329.28125 L 388.492188 330.40625 L 389.496094 331.835938 L 390.496094 333.285156 L 391.5 334.492188 L 392.5 335.46875 L 393.503906 336.375 L 394.507812 337.324219 L 395.507812 338.378906 L 396.511719 339.527344 L 397.511719 340.632812 L 398.515625 341.574219 L 399.515625 342.355469 L 400.519531 343.082031 L 401.523438 343.847656 L 402.523438 344.640625 L 403.527344 345.429688 L 404.527344 346.152344 L 405.53125 346.742188 L 406.535156 347.214844 L 407.535156 347.695312 L 408.539062 348.296875 L 409.539062 348.960938 L 410.542969 349.589844 L 411.542969 350.140625 L 412.546875 350.617188 L 413.550781 351.039062 L 414.550781 351.441406 L 415.554688 351.871094 L 416.554688 352.296875 L 417.558594 352.660156 L 418.558594 352.953125 L 419.5625 353.21875 L 420.566406 353.480469 L 421.566406 353.746094 L 422.570312 354.007812 L 423.570312 354.246094 L 424.574219 354.453125 L 425.578125 354.625 L 426.578125 354.804688 L 427.582031 355.015625 L 428.582031 355.257812 L 429.585938 355.492188 L 430.585938 355.6875 L 431.589844 355.832031 L 432.59375 355.941406 L 433.59375 356.03125 L 434.597656 356.136719 L 435.597656 356.28125 L 436.601562 356.441406 L 437.601562 356.582031 L 438.605469 356.675781 L 439.609375 356.714844 L 440.609375 356.730469 L 441.613281 356.761719 L 442.613281 356.832031 L 443.617188 356.9375 L 444.617188 357.042969 L 445.621094 357.121094 L 446.625 357.167969 L 447.625 357.203125 L 448.628906 357.257812 L 449.628906 357.328125 L 450.632812 357.402344 L 451.636719 357.449219 L 452.636719 357.460938 L 453.640625 357.460938 L 454.640625 357.480469 L 455.644531 357.519531 L 456.644531 357.5625 L 457.648438 357.59375 L 458.652344 357.609375 L 459.652344 357.621094 L 460.65625 357.636719 L 461.65625 357.667969 L 462.660156 357.703125 L 463.660156 357.730469 L 464.664062 357.75 L 465.667969 357.765625 L 466.667969 357.785156 L 467.671875 357.808594 L 468.671875 357.839844 L 469.675781 357.863281 L 470.679688 357.867188 L 471.679688 357.859375 L 472.683594 357.851562 L 473.683594 357.863281 L 474.6875 357.894531 L 475.6875 357.929688 L 476.691406 357.949219 L 477.695312 357.945312 L 478.695312 357.925781 L 479.699219 357.902344 L 480.699219 357.886719 L 481.703125 357.894531 L 482.703125 357.914062 L 483.707031 357.933594 L 484.710938 357.941406 L 485.710938 357.941406 L 486.714844 357.9375 L 487.714844 357.925781 L 488.71875 357.914062 L 489.722656 357.90625 L 490.722656 357.90625 L 491.726562 357.914062 L 492.726562 357.921875 L 493.730469 357.929688 L 494.730469 357.941406 L 495.734375 357.957031 L 496.738281 357.976562 L 497.738281 357.992188 L 498.742188 357.996094 L 499.742188 357.992188 L 500.746094 357.988281 L 501.746094 357.988281 L 502.75 357.992188 L 503.753906 357.992188 L 504.753906 357.988281 L 505.757812 357.984375 L 506.757812 357.992188 L 508.765625 358.023438 L 509.765625 358.039062 L 510.769531 358.050781 L 511.769531 358.058594 L 512.773438 358.0625 L 513.773438 358.054688 L 514.777344 358.046875 L 515.78125 358.042969 L 516.78125 358.050781 L 517.785156 358.058594 L 518.785156 358.066406 L 519.789062 358.074219 L 520.789062 358.085938 L 521.792969 358.101562 L 522.796875 358.105469 L 523.796875 358.097656 L 524.800781 358.085938 L 525.800781 358.074219 L 526.804688 358.070312 L 527.808594 358.074219 L 528.808594 358.078125 L 529.8125 358.074219 L 530.8125 358.0625 L 531.816406 358.046875 L 532.816406 358.03125 L 533.820312 358.023438 L 534.824219 358.019531 L 535.824219 358.023438 L 536.828125 358.035156 L 537.828125 358.050781 L 538.832031 358.070312 L 539.832031 358.085938 L 540.835938 358.09375 L 541.839844 358.097656 L 543.84375 358.097656 L 544.84375 358.09375 L 545.847656 358.09375 L 546.847656 358.105469 L 548.855469 358.136719 L 549.855469 358.148438 L 550.859375 358.160156 L 551.859375 358.171875 L 553.867188 358.179688 L 554.867188 358.179688 L 555.871094 358.175781 L 556.871094 358.160156 L 557.875 358.140625 L 558.875 358.125 L 559.878906 358.125 L 560.882812 358.132812 L 561.882812 358.128906 L 562.886719 358.121094 L 563.886719 358.121094 L 564.890625 358.132812 L 565.890625 358.140625 L 566.894531 358.148438 L 570.902344 358.148438 L 571.90625 358.152344 L 572.910156 358.171875 L 573.910156 358.222656 L 574.914062 358.316406 "/>
<g clip-path="url(#clip-16)">
<path fill="none" stroke-width="1.066978" stroke-linecap="round" stroke-linejoin="round" stroke="rgb(70.196078%, 70.196078%, 70.196078%)" stroke-opacity="1" stroke-miterlimit="10" d="M 37.152344 374.597656 L 600.523438 374.597656 L 600.523438 23.957031 L 37.152344 23.957031 Z M 37.152344 374.597656 "/>
</g>
<g fill="rgb(30.196078%, 30.196078%, 30.196078%)" fill-opacity="1">
<use xlink:href="#glyph-0-1" x="20.21875" y="361.575195"/>
<use xlink:href="#glyph-0-2" x="25.21875" y="361.575195"/>
<use xlink:href="#glyph-0-1" x="27.21875" y="361.575195"/>
</g>
<g fill="rgb(30.196078%, 30.196078%, 30.196078%)" fill-opacity="1">
<use xlink:href="#glyph-0-1" x="20.21875" y="261.821289"/>
<use xlink:href="#glyph-0-2" x="25.21875" y="261.821289"/>
<use xlink:href="#glyph-0-3" x="27.21875" y="261.821289"/>
</g>
<g fill="rgb(30.196078%, 30.196078%, 30.196078%)" fill-opacity="1">
<use xlink:href="#glyph-0-1" x="20.21875" y="162.063477"/>
<use xlink:href="#glyph-0-2" x="25.21875" y="162.063477"/>
<use xlink:href="#glyph-0-4" x="27.21875" y="162.063477"/>
</g>
<g fill="rgb(30.196078%, 30.196078%, 30.196078%)" fill-opacity="1">
<use xlink:href="#glyph-0-1" x="20.21875" y="62.305664"/>
<use xlink:href="#glyph-0-2" x="25.21875" y="62.305664"/>
<use xlink:href="#glyph-0-5" x="27.21875" y="62.305664"/>
</g>
<path fill="none" stroke-width="0.533489" stroke-linecap="butt" stroke-linejoin="round" stroke="rgb(70.196078%, 70.196078%, 70.196078%)" stroke-opacity="1" stroke-miterlimit="10" d="M 34.410156 358.660156 L 37.152344 358.660156 "/>
<path fill="none" stroke-width="0.533489" stroke-linecap="butt" stroke-linejoin="round" stroke="rgb(70.196078%, 70.196078%, 70.196078%)" stroke-opacity="1" stroke-miterlimit="10" d="M 34.410156 258.90625 L 37.152344 258.90625 "/>
<path fill="none" stroke-width="0.533489" stroke-linecap="butt" stroke-linejoin="round" stroke="rgb(70.196078%, 70.196078%, 70.196078%)" stroke-opacity="1" stroke-miterlimit="10" d="M 34.410156 159.148438 L 37.152344 159.148438 "/>
<path fill="none" stroke-width="0.533489" stroke-linecap="butt" stroke-linejoin="round" stroke="rgb(70.196078%, 70.196078%, 70.196078%)" stroke-opacity="1" stroke-miterlimit="10" d="M 34.410156 59.390625 L 37.152344 59.390625 "/>
<path fill="none" stroke-width="0.533489" stroke-linecap="butt" stroke-linejoin="round" stroke="rgb(70.196078%, 70.196078%, 70.196078%)" stroke-opacity="1" stroke-miterlimit="10" d="M 62.757812 377.339844 L 62.757812 374.597656 "/>
<path fill="none" stroke-width="0.533489" stroke-linecap="butt" stroke-linejoin="round" stroke="rgb(70.196078%, 70.196078%, 70.196078%)" stroke-opacity="1" stroke-miterlimit="10" d="M 205.023438 377.339844 L 205.023438 374.597656 "/>
<path fill="none" stroke-width="0.533489" stroke-linecap="butt" stroke-linejoin="round" stroke="rgb(70.196078%, 70.196078%, 70.196078%)" stroke-opacity="1" stroke-miterlimit="10" d="M 347.289062 377.339844 L 347.289062 374.597656 "/>
<path fill="none" stroke-width="0.533489" stroke-linecap="butt" stroke-linejoin="round" stroke="rgb(70.196078%, 70.196078%, 70.196078%)" stroke-opacity="1" stroke-miterlimit="10" d="M 489.554688 377.339844 L 489.554688 374.597656 "/>
<g fill="rgb(30.196078%, 30.196078%, 30.196078%)" fill-opacity="1">
<use xlink:href="#glyph-0-1" x="60.257812" y="385.946289"/>
</g>
<g fill="rgb(30.196078%, 30.196078%, 30.196078%)" fill-opacity="1">
<use xlink:href="#glyph-0-6" x="202.523438" y="385.946289"/>
</g>
<g fill="rgb(30.196078%, 30.196078%, 30.196078%)" fill-opacity="1">
<use xlink:href="#glyph-0-3" x="342.289062" y="385.946289"/>
<use xlink:href="#glyph-0-1" x="347.289062" y="385.946289"/>
</g>
<g fill="rgb(30.196078%, 30.196078%, 30.196078%)" fill-opacity="1">
<use xlink:href="#glyph-0-3" x="484.554688" y="385.946289"/>
<use xlink:href="#glyph-0-6" x="489.554688" y="385.946289"/>
</g>
<g fill="rgb(0%, 0%, 0%)" fill-opacity="1">
<use xlink:href="#glyph-1-1" x="288.835938" y="399.538086"/>
<use xlink:href="#glyph-1-2" x="297.835938" y="399.538086"/>
<use xlink:href="#glyph-1-3" x="303.835938" y="399.538086"/>
<use xlink:href="#glyph-1-4" x="309.835938" y="399.538086"/>
<use xlink:href="#glyph-1-5" x="315.835938" y="399.538086"/>
<use xlink:href="#glyph-1-6" x="321.835938" y="399.538086"/>
<use xlink:href="#glyph-1-2" x="327.835938" y="399.538086"/>
<use xlink:href="#glyph-1-7" x="333.835938" y="399.538086"/>
<use xlink:href="#glyph-1-8" x="339.835938" y="399.538086"/>
<use xlink:href="#glyph-1-9" x="342.835938" y="399.538086"/>
</g>
<g fill="rgb(0%, 0%, 0%)" fill-opacity="1">
<use xlink:href="#glyph-2-1" x="13.499023" y="216.777344"/>
<use xlink:href="#glyph-2-2" x="13.499023" y="210.777344"/>
<use xlink:href="#glyph-2-3" x="13.499023" y="204.777344"/>
<use xlink:href="#glyph-2-4" x="13.499023" y="198.777344"/>
<use xlink:href="#glyph-2-5" x="13.499023" y="192.777344"/>
<use xlink:href="#glyph-2-6" x="13.499023" y="190.777344"/>
<use xlink:href="#glyph-2-7" x="13.499023" y="187.777344"/>
</g>
<g fill="rgb(0%, 0%, 0%)" fill-opacity="1">
<use xlink:href="#glyph-3-1" x="37.152344" y="15.102539"/>
<use xlink:href="#glyph-3-2" x="46.152344" y="15.102539"/>
<use xlink:href="#glyph-3-3" x="53.152344" y="15.102539"/>
<use xlink:href="#glyph-3-4" x="60.152344" y="15.102539"/>
<use xlink:href="#glyph-3-5" x="67.152344" y="15.102539"/>
<use xlink:href="#glyph-3-6" x="70.152344" y="15.102539"/>
<use xlink:href="#glyph-3-7" x="74.152344" y="15.102539"/>
<use xlink:href="#glyph-3-8" x="81.152344" y="15.102539"/>
<use xlink:href="#glyph-3-9" x="85.152344" y="15.102539"/>
<use xlink:href="#glyph-3-10" x="94.152344" y="15.102539"/>
<use xlink:href="#glyph-3-11" x="97.152344" y="15.102539"/>
<use xlink:href="#glyph-3-6" x="104.152344" y="15.102539"/>
<use xlink:href="#glyph-3-8" x="108.152344" y="15.102539"/>
<use xlink:href="#glyph-3-11" x="112.152344" y="15.102539"/>
<use xlink:href="#glyph-3-12" x="119.152344" y="15.102539"/>
<use xlink:href="#glyph-3-8" x="123.152344" y="15.102539"/>
<use xlink:href="#glyph-3-13" x="127.152344" y="15.102539"/>
<use xlink:href="#glyph-3-14" x="135.152344" y="15.102539"/>
<use xlink:href="#glyph-3-15" x="142.152344" y="15.102539"/>
<use xlink:href="#glyph-3-5" x="146.152344" y="15.102539"/>
<use xlink:href="#glyph-3-14" x="149.152344" y="15.102539"/>
<use xlink:href="#glyph-3-3" x="156.152344" y="15.102539"/>
<use xlink:href="#glyph-3-6" x="163.152344" y="15.102539"/>
<use xlink:href="#glyph-3-8" x="167.152344" y="15.102539"/>
<use xlink:href="#glyph-3-16" x="171.152344" y="15.102539"/>
<use xlink:href="#glyph-3-2" x="182.152344" y="15.102539"/>
<use xlink:href="#glyph-3-14" x="189.152344" y="15.102539"/>
<use xlink:href="#glyph-3-3" x="196.152344" y="15.102539"/>
<use xlink:href="#glyph-3-8" x="203.152344" y="15.102539"/>
<use xlink:href="#glyph-3-1" x="207.152344" y="15.102539"/>
<use xlink:href="#glyph-3-2" x="216.152344" y="15.102539"/>
<use xlink:href="#glyph-3-17" x="223.152344" y="15.102539"/>
<use xlink:href="#glyph-3-6" x="230.152344" y="15.102539"/>
<use xlink:href="#glyph-3-18" x="234.152344" y="15.102539"/>
</g>
</svg>
